{
  "project_info": {
    "project_number": "614208584229",
    "project_id": "imagecamera-a1a0b",
    "storage_bucket": "imagecamera-a1a0b.appspot.com"
  },
  "client": [
    {
      "client_info": {
        "mobilesdk_app_id": "1:614208584229:android:bbd3af57f79b3557d89dcc",
        "android_client_info": {
          "package_name": "com.daniel.imagecamera"
        }
      },
      "oauth_client": [
        {
          "client_id": "614208584229-ohurl47ck6am8si9d8f8jnkeniscrqdq.apps.googleusercontent.com",
          "client_type": 3
        }
      ],
      "api_key": [
        {
          "current_key": "AIzaSyCk3vsSaD35ESPHy3wzkyz8W6QUS9-JsLc"
        }
      ],
      "services": {
        "appinvite_service": {
          "other_platform_oauth_client": [
            {
              "client_id": "614208584229-ohurl47ck6am8si9d8f8jnkeniscrqdq.apps.googleusercontent.com",
              "client_type": 3
            }
          ]
        }
      }
    }
  ],
  "configuration_version": "1"
}